{
  "code": 0,
  "data": {
    "content": [
      {
        "cate": 8,
        "cateStr": "平面",
        "commentCount": 14,
        "commentCountStr": "14",
        "contentCount": 0,
        "contentCountStr": "0",
        "cover": "https://img.zcool.cn/community/012c6061ae2b9e11013e8cd0590f32.jpg",
        "cover1x": "https://img.zcool.cn/community/012c6061ae2b9e11013e8cd0590f32.jpg@260w_195h_1c_1e_1o_100sh.jpg",
        "cover2x": "https://img.zcool.cn/community/012c6061ae2b9e11013e8cd0590f32.jpg@520w_390h_1c_1e_2o_100sh.jpg",
        "createTime": 1638804411000,
        "creator": 199049,
        "creatorObj": {
          "avatar": "https://img.zcool.cn/community/031f1b95c60ae1fa801213f2663ce65.jpg",
          "avatar1x": "https://img.zcool.cn/community/031f1b95c60ae1fa801213f2663ce65.jpg@80w_80h_1c_1e_1o_100sh.jpg",
          "avatar2x": "https://img.zcool.cn/community/031f1b95c60ae1fa801213f2663ce65.jpg@160w_160h_1c_1e_1o_100sh.jpg",
          "id": 199049,
          "memberType": 0,
          "pageUrl": "https://kimtao.zcool.com.cn",
          "status": 1,
          "username": "画画的淘米"
        },
        "designTime": 1638748800000,
        "eventId": 306,
        "favoriteCount": 0,
        "favoriteCountStr": "0",
        "favoriteStatus": 0,
        "id": 14199376,
        "objectType": 3,
        "objectTypeStr": "作品",
        "pageUrl": "https://www.zcool.com.cn/work/ZNTY3OTc1MDQ=.html",
        "personCount": 0,
        "publishTime": 1638805956000,
        "publishTimeDiffStr": "15小时前",
        "recommend": 3,
        "recommendCount": 68,
        "recommendCountStr": "68",
        "recommendTime": 1638862666000,
        "status": 1,
        "subCate": 779,
        "subCateStr": "IP形象",
        "timeTitleStr": "最近更新时间：2021-12-07 15:37:46&#10;首次审核通过：2021-12-06 23:52:36&#10;内容创建时间：2021-12-06 23:26:51",
        "title": "#三体创意合伙人#智子工程计划",
        "trackCode": "",
        "type": 1,
        "typeStr": "原创",
        "viewCount": 301,
        "viewCountStr": "301"
      },
      {
        "cate": 8,
        "cateStr": "平面",
        "commentCount": 42,
        "commentCountStr": "42",
        "contentCount": 0,
        "contentCountStr": "0",
        "cover": "https://img.zcool.cn/community/01e86461adcbe111013e8cd0f7b37f.jpg",
        "cover1x": "https://img.zcool.cn/community/01e86461adcbe111013e8cd0f7b37f.jpg@260w_195h_1c_1e_1o_100sh.jpg",
        "cover2x": "https://img.zcool.cn/community/01e86461adcbe111013e8cd0f7b37f.jpg@520w_390h_1c_1e_2o_100sh.jpg",
        "createTime": 1638779793000,
        "creator": 14796412,
        "creatorObj": {
          "avatar": "https://img.zcool.cn/community/006c555a7d3f4da8012192311a6703.jpg",
          "avatar1x": "https://img.zcool.cn/community/006c555a7d3f4da8012192311a6703.jpg@80w_80h_1c_1e_1o_100sh.jpg",
          "avatar2x": "https://img.zcool.cn/community/006c555a7d3f4da8012192311a6703.jpg@160w_160h_1c_1e_1o_100sh.jpg",
          "id": 14796412,
          "memberType": 0,
          "pageUrl": "https://zhangzejian.zcool.com.cn",
          "status": 1,
          "username": "张泽坚"
        },
        "designTime": 1638780177000,
        "eventId": 0,
        "favoriteCount": 0,
        "favoriteCountStr": "0",
        "favoriteStatus": 0,
        "id": 14197555,
        "objectType": 3,
        "objectTypeStr": "作品",
        "pageUrl": "https://www.zcool.com.cn/work/ZNTY3OTAyMjA=.html",
        "personCount": 0,
        "publishTime": 1638782846000,
        "publishTimeDiffStr": "22小时前",
        "recommend": 3,
        "recommendCount": 70,
        "recommendCountStr": "70",
        "recommendTime": 1638858505000,
        "status": 1,
        "subCate": 14,
        "subCateStr": "字体/字形",
        "timeTitleStr": "最近更新时间：2021-12-07 14:28:25&#10;首次审核通过：2021-12-06 17:27:26&#10;内容创建时间：2021-12-06 16:36:33",
        "title": "手写集",
        "trackCode": "",
        "type": 1,
        "typeStr": "原创",
        "viewCount": 1655,
        "viewCountStr": "1655"
      },
      {
        "cate": 8,
        "cateStr": "平面",
        "commentCount": 9,
        "commentCountStr": "9",
        "contentCount": 0,
        "contentCountStr": "0",
        "cover": "https://img.zcool.cn/community/012a9061adca9611013f01cd7ea46b.jpg",
        "cover1x": "https://img.zcool.cn/community/012a9061adca9611013f01cd7ea46b.jpg@260w_195h_1c_1e_1o_100sh.jpg",
        "cover2x": "https://img.zcool.cn/community/012a9061adca9611013f01cd7ea46b.jpg@520w_390h_1c_1e_2o_100sh.jpg",
        "createTime": 1638761387000,
        "creator": 14855036,
        "creatorObj": {
          "avatar": "https://img.zcool.cn/community/0188a05bbb0f17a801213deab36588.jpg",
          "avatar1x": "https://img.zcool.cn/community/0188a05bbb0f17a801213deab36588.jpg@80w_80h_1c_1e_1o_100sh.jpg",
          "avatar2x": "https://img.zcool.cn/community/0188a05bbb0f17a801213deab36588.jpg@160w_160h_1c_1e_1o_100sh.jpg",
          "id": 14855036,
          "memberType": 0,
          "pageUrl": "https://www.zcool.com.cn/u/14855036",
          "status": 1,
          "username": "潘虎设计实验室"
        },
        "designTime": 1638779553000,
        "eventId": 0,
        "favoriteCount": 0,
        "favoriteCountStr": "0",
        "favoriteStatus": 0,
        "id": 14195595,
        "objectType": 3,
        "objectTypeStr": "作品",
        "pageUrl": "https://www.zcool.com.cn/work/ZNTY3ODIzODA=.html",
        "personCount": 0,
        "publishTime": 1638779897000,
        "publishTimeDiffStr": "23小时前",
        "recommend": 3,
        "recommendCount": 128,
        "recommendCountStr": "128",
        "recommendTime": 1638857796000,
        "status": 1,
        "subCate": 15,
        "subCateStr": "品牌",
        "timeTitleStr": "最近更新时间：2021-12-07 14:16:36&#10;首次审核通过：2021-12-06 16:38:17&#10;内容创建时间：2021-12-06 11:29:47",
        "title": "联合国×潘虎 | 心有猛虎 细嗅蔷薇",
        "trackCode": "",
        "type": 1,
        "typeStr": "原创",
        "viewCount": 2586,
        "viewCountStr": "2586"
      },
      {
        "cate": 8,
        "cateStr": "平面",
        "commentCount": 5,
        "commentCountStr": "5",
        "contentCount": 0,
        "contentCountStr": "0",
        "cover": "https://img.zcool.cn/community/014c3a61ada80411013e8cd05c4c49.jpg",
        "cover1x": "https://img.zcool.cn/community/014c3a61ada80411013e8cd05c4c49.jpg@260w_195h_1c_1e_1o_100sh.jpg",
        "cover2x": "https://img.zcool.cn/community/014c3a61ada80411013e8cd05c4c49.jpg@520w_390h_1c_1e_2o_100sh.jpg",
        "createTime": 1638757800000,
        "creator": 1906553,
        "creatorObj": {
          "avatar": "https://img.zcool.cn/community/04aa2b55e5df200000017befe9baaf.jpg",
          "avatar1x": "https://img.zcool.cn/community/04aa2b55e5df200000017befe9baaf.jpg@80w_80h_1c_1e_1o_100sh.jpg",
          "avatar2x": "https://img.zcool.cn/community/04aa2b55e5df200000017befe9baaf.jpg@160w_160h_1c_1e_1o_100sh.jpg",
          "id": 1906553,
          "memberType": 0,
          "pageUrl": "https://www.zcool.com.cn/u/1906553",
          "status": 1,
          "username": "王强127"
        },
        "designTime": 1638748800000,
        "eventId": 0,
        "favoriteCount": 0,
        "favoriteCountStr": "0",
        "favoriteStatus": 0,
        "id": 14195108,
        "objectType": 3,
        "objectTypeStr": "作品",
        "pageUrl": "https://www.zcool.com.cn/work/ZNTY3ODA0MzI=.html",
        "personCount": 0,
        "publishTime": 1638759815000,
        "publishTimeDiffStr": "1天前",
        "recommend": 3,
        "recommendCount": 70,
        "recommendCountStr": "70",
        "recommendTime": 1638857768000,
        "status": 1,
        "subCate": 9,
        "subCateStr": "包装",
        "timeTitleStr": "最近更新时间：2021-12-07 14:16:08&#10;首次审核通过：2021-12-06 11:03:35&#10;内容创建时间：2021-12-06 10:30:00",
        "title": "设计合辑 37",
        "trackCode": "",
        "type": 1,
        "typeStr": "原创",
        "viewCount": 1963,
        "viewCountStr": "1963"
      },
      {
        "cate": 8,
        "cateStr": "平面",
        "commentCount": 35,
        "commentCountStr": "35",
        "contentCount": 0,
        "contentCountStr": "0",
        "cover": "https://img.zcool.cn/community/01194560f1a8b511013f47203f66c1.jpg",
        "cover1x": "https://img.zcool.cn/community/01194560f1a8b511013f47203f66c1.jpg@260w_195h_1c_1e_1o_100sh.jpg",
        "cover2x": "https://img.zcool.cn/community/01194560f1a8b511013f47203f66c1.jpg@520w_390h_1c_1e_2o_100sh.jpg",
        "createTime": 1626448850000,
        "creator": 15327491,
        "creatorObj": {
          "avatar": "https://img.zcool.cn/community/04424c58c27e1ba801219c77d6720c.jpg",
          "avatar1x": "https://img.zcool.cn/community/04424c58c27e1ba801219c77d6720c.jpg@80w_80h_1c_1e_1o_100sh.jpg",
          "avatar2x": "https://img.zcool.cn/community/04424c58c27e1ba801219c77d6720c.jpg@160w_160h_1c_1e_1o_100sh.jpg",
          "id": 15327491,
          "memberType": 0,
          "pageUrl": "https://www.zcool.com.cn/u/15327491",
          "status": 1,
          "username": "酉辰大K"
        },
        "designTime": 1638748800000,
        "eventId": 0,
        "favoriteCount": 0,
        "favoriteCountStr": "0",
        "favoriteStatus": 0,
        "id": 13506156,
        "objectType": 3,
        "objectTypeStr": "作品",
        "pageUrl": "https://www.zcool.com.cn/work/ZNTQwMjQ2MjQ=.html",
        "personCount": 0,
        "publishTime": 1638776479000,
        "publishTimeDiffStr": "1天前",
        "recommend": 3,
        "recommendCount": 274,
        "recommendCountStr": "274",
        "recommendTime": 1638857002000,
        "status": 1,
        "subCate": 10,
        "subCateStr": "海报",
        "timeTitleStr": "最近更新时间：2021-12-07 14:03:22&#10;首次审核通过：2021-12-06 15:41:19&#10;内容创建时间：2021-07-16 23:20:50",
        "title": "《倩女幽魂》手绘海报",
        "trackCode": "",
        "type": 1,
        "typeStr": "原创",
        "viewCount": 3104,
        "viewCountStr": "3104"
      },
      {
        "cate": 499,
        "cateStr": "工业/产品",
        "commentCount": 1,
        "commentCountStr": "1",
        "contentCount": 0,
        "contentCountStr": "0",
        "cover": "https://img.zcool.cn/community/0161a1619dece611013e67fa6fb0c4.jpg",
        "cover1x": "https://img.zcool.cn/community/0161a1619dece611013e67fa6fb0c4.jpg@260w_195h_1c_1e_1o_100sh.jpg",
        "cover2x": "https://img.zcool.cn/community/0161a1619dece611013e67fa6fb0c4.jpg@520w_390h_1c_1e_2o_100sh.jpg",
        "createTime": 1637739753000,
        "creator": 16722353,
        "creatorObj": {
          "avatar": "https://img.zcool.cn/community/01324a619dabd311013f01cd13e39c.jpg",
          "avatar1x": "https://img.zcool.cn/community/01324a619dabd311013f01cd13e39c.jpg@80w_80h_1c_1e_1o_100sh.jpg",
          "avatar2x": "https://img.zcool.cn/community/01324a619dabd311013f01cd13e39c.jpg@160w_160h_1c_1e_1o_100sh.jpg",
          "id": 16722353,
          "memberType": 0,
          "pageUrl": "https://www.zcool.com.cn/u/16722353",
          "status": 1,
          "username": "Lucia六一"
        },
        "designTime": 1636502400000,
        "eventId": 0,
        "favoriteCount": 0,
        "favoriteCountStr": "0",
        "favoriteStatus": 0,
        "id": 14140227,
        "objectType": 3,
        "objectTypeStr": "作品",
        "pageUrl": "https://www.zcool.com.cn/work/ZNTY1NjA5MDg=.html",
        "personCount": 0,
        "publishTime": 1637743522000,
        "publishTimeDiffStr": "12天前",
        "recommend": 3,
        "recommendCount": 43,
        "recommendCountStr": "43",
        "recommendTime": 1638856694000,
        "status": 1,
        "subCate": 506,
        "subCateStr": "电子产品",
        "timeTitleStr": "最近更新时间：2021-12-07 13:58:14&#10;首次审核通过：2021-11-24 16:45:22&#10;内容创建时间：2021-11-24 15:42:33",
        "title": "Cookie Wireless Charger",
        "trackCode": "",
        "type": 1,
        "typeStr": "原创",
        "viewCount": 2117,
        "viewCountStr": "2117"
      },
      {
        "cate": 499,
        "cateStr": "工业/产品",
        "commentCount": 9,
        "commentCountStr": "9",
        "contentCount": 0,
        "contentCountStr": "0",
        "cover": "https://img.zcool.cn/community/017497619ef71c11013f01cdcbdfca.jpg",
        "cover1x": "https://img.zcool.cn/community/017497619ef71c11013f01cdcbdfca.jpg@260w_195h_1c_1e_1o_100sh.jpg",
        "cover2x": "https://img.zcool.cn/community/017497619ef71c11013f01cdcbdfca.jpg@520w_390h_1c_1e_2o_100sh.jpg",
        "createTime": 1637805449000,
        "creator": 18880668,
        "creatorObj": {
          "avatar": "https://img.zcool.cn/community/01208f5d5382b2a8012187f423d9ea.jpg",
          "avatar1x": "https://img.zcool.cn/community/01208f5d5382b2a8012187f423d9ea.jpg@80w_80h_1c_1e_1o_100sh.jpg",
          "avatar2x": "https://img.zcool.cn/community/01208f5d5382b2a8012187f423d9ea.jpg@160w_160h_1c_1e_1o_100sh.jpg",
          "id": 18880668,
          "memberType": 0,
          "pageUrl": "https://www.zcool.com.cn/u/18880668",
          "status": 1,
          "username": "Shouwu"
        },
        "designTime": 1637798400000,
        "eventId": 0,
        "favoriteCount": 0,
        "favoriteCountStr": "0",
        "favoriteStatus": 0,
        "id": 14143485,
        "objectType": 3,
        "objectTypeStr": "作品",
        "pageUrl": "https://www.zcool.com.cn/work/ZNTY1NzM5NDA=.html",
        "personCount": 0,
        "publishTime": 1637818297000,
        "publishTimeDiffStr": "12天前",
        "recommend": 3,
        "recommendCount": 91,
        "recommendCountStr": "91",
        "recommendTime": 1638856616000,
        "status": 1,
        "subCate": 508,
        "subCateStr": "生活用品",
        "timeTitleStr": "最近更新时间：2021-12-07 13:56:56&#10;首次审核通过：2021-11-25 13:31:37&#10;内容创建时间：2021-11-25 09:57:29",
        "title": "2021年度秋季上市新品合集",
        "trackCode": "",
        "type": 1,
        "typeStr": "原创",
        "viewCount": 5141,
        "viewCountStr": "5141"
      },
      {
        "cate": 610,
        "cateStr": "影视",
        "commentCount": 4,
        "commentCountStr": "4",
        "contentCount": 0,
        "contentCountStr": "0",
        "cover": "https://img.zcool.cn/community/01bcb461aedcb711013f01cdc88926.jpg",
        "cover1x": "https://img.zcool.cn/community/01bcb461aedcb711013f01cdc88926.jpg@260w_195h_1c_1e_1o_100sh.jpg",
        "cover2x": "https://img.zcool.cn/community/01bcb461aedcb711013f01cdc88926.jpg@520w_390h_1c_1e_2o_100sh.jpg",
        "createTime": 1638849379000,
        "creator": 614027,
        "creatorObj": {
          "avatar": "https://img.zcool.cn/job/product/b20b5746c068a84a62309b43bc7f",
          "avatar1x": "https://img.zcool.cn/job/product/b20b5746c068a84a62309b43bc7f@80w_80h_1c_1e_1o_100sh.jpg",
          "avatar2x": "https://img.zcool.cn/job/product/b20b5746c068a84a62309b43bc7f@160w_160h_1c_1e_1o_100sh.jpg",
          "id": 614027,
          "memberType": 0,
          "pageUrl": "https://bitone.zcool.com.cn",
          "status": 1,
          "username": "BITONE叶青司机"
        },
        "designTime": 1638835200000,
        "eventId": 0,
        "favoriteCount": 0,
        "favoriteCountStr": "0",
        "favoriteStatus": 0,
        "id": 14201232,
        "objectType": 3,
        "objectTypeStr": "作品",
        "pageUrl": "https://www.zcool.com.cn/work/ZNTY4MDQ5Mjg=.html",
        "personCount": 0,
        "publishTime": 1638856124000,
        "publishTimeDiffStr": "1小时前",
        "recommend": 3,
        "recommendCount": 13,
        "recommendCountStr": "13",
        "recommendTime": 1638856244000,
        "status": 1,
        "subCate": 645,
        "subCateStr": "短片",
        "timeTitleStr": "最近更新时间：2021-12-07 13:50:44&#10;首次审核通过：2021-12-07 13:48:44&#10;内容创建时间：2021-12-07 11:56:19",
        "title": "BITONE X 极氪 001 智能座舱",
        "trackCode": "",
        "type": 1,
        "typeStr": "原创",
        "viewCount": 1150,
        "viewCountStr": "1150"
      },
      {
        "cate": 24,
        "cateStr": "三维",
        "commentCount": 31,
        "commentCountStr": "31",
        "contentCount": 0,
        "contentCountStr": "0",
        "cover": "https://img.zcool.cn/community/018dfc61887a0711013e8943ec6f9f.jpg",
        "cover1x": "https://img.zcool.cn/community/018dfc61887a0711013e8943ec6f9f.jpg@260w_195h_1c_1e_1o_100sh.jpg",
        "cover2x": "https://img.zcool.cn/community/018dfc61887a0711013e8943ec6f9f.jpg@520w_390h_1c_1e_2o_100sh.jpg",
        "createTime": 1636333649000,
        "creator": 1536167,
        "creatorObj": {
          "avatar": "https://img.zcool.cn/community/0164585f15819aa80120662168709e.jpg",
          "avatar1x": "https://img.zcool.cn/community/0164585f15819aa80120662168709e.jpg@80w_80h_1c_1e_1o_100sh.jpg",
          "avatar2x": "https://img.zcool.cn/community/0164585f15819aa80120662168709e.jpg@160w_160h_1c_1e_1o_100sh.jpg",
          "id": 1536167,
          "memberType": 0,
          "pageUrl": "https://www.zcool.com.cn/u/1536167",
          "status": 1,
          "username": "白_夜"
        },
        "designTime": 1636336131000,
        "eventId": 0,
        "favoriteCount": 0,
        "favoriteCountStr": "0",
        "favoriteStatus": 0,
        "id": 14059955,
        "objectType": 3,
        "objectTypeStr": "作品",
        "pageUrl": "https://www.zcool.com.cn/work/ZNTYyMzk4MjA=.html",
        "personCount": 0,
        "publishTime": 1636339381000,
        "publishTimeDiffStr": "29天前",
        "recommend": 3,
        "recommendCount": 252,
        "recommendCountStr": "252",
        "recommendTime": 1638855689000,
        "status": 1,
        "subCate": 27,
        "subCateStr": "人物/生物",
        "timeTitleStr": "最近更新时间：2021-12-07 13:41:29&#10;首次审核通过：2021-11-08 10:43:01&#10;内容创建时间：2021-11-08 09:07:29",
        "title": "懵懵和佩奇的周末时光",
        "trackCode": "",
        "type": 1,
        "typeStr": "原创",
        "viewCount": 4448,
        "viewCountStr": "4448"
      },
      {
        "cate": 8,
        "cateStr": "平面",
        "commentCount": 12,
        "commentCountStr": "12",
        "contentCount": 0,
        "contentCountStr": "0",
        "cover": "https://img.zcool.cn/community/0159c961adb41a11013e8cd016459e.jpg",
        "cover1x": "https://img.zcool.cn/community/0159c961adb41a11013e8cd016459e.jpg@260w_195h_1c_1e_1o_100sh.jpg",
        "cover2x": "https://img.zcool.cn/community/0159c961adb41a11013e8cd016459e.jpg@520w_390h_1c_1e_2o_100sh.jpg",
        "createTime": 1638770287000,
        "creator": 13750641,
        "creatorObj": {
          "avatar": "https://img.zcool.cn/community/01252560e5d2ec11013eaf70dda576.jpg",
          "avatar1x": "https://img.zcool.cn/community/01252560e5d2ec11013eaf70dda576.jpg@80w_80h_1c_1e_1o_100sh.jpg",
          "avatar2x": "https://img.zcool.cn/community/01252560e5d2ec11013eaf70dda576.jpg@160w_160h_1c_1e_1o_100sh.jpg",
          "id": 13750641,
          "memberType": 0,
          "pageUrl": "https://bincheng.zcool.com.cn",
          "status": 1,
          "username": "老火炕"
        },
        "designTime": 1638748800000,
        "eventId": 308,
        "favoriteCount": 0,
        "favoriteCountStr": "0",
        "favoriteStatus": 0,
        "id": 14196300,
        "objectType": 3,
        "objectTypeStr": "作品",
        "pageUrl": "https://www.zcool.com.cn/work/ZNTY3ODUyMDA=.html",
        "personCount": 0,
        "publishTime": 1638772312000,
        "publishTimeDiffStr": "1天前",
        "recommend": 3,
        "recommendCount": 57,
        "recommendCountStr": "57",
        "recommendTime": 1638855618000,
        "status": 1,
        "subCate": 10,
        "subCateStr": "海报",
        "timeTitleStr": "最近更新时间：2021-12-07 13:40:18&#10;首次审核通过：2021-12-06 14:31:52&#10;内容创建时间：2021-12-06 13:58:07",
        "title": "《忧绿》--在cdf发现环保之美",
        "trackCode": "",
        "type": 1,
        "typeStr": "原创",
        "viewCount": 1232,
        "viewCountStr": "1232"
      }
    ],
    "first": false,
    "last": false,
    "loadNumber": 1,
    "number": 1,
    "numberOfElements": 10,
    "pageable": {
      "limit": 10,
      "loadIndex": 1,
      "loadNumber": 1,
      "loadSize": 10,
      "offset": 0,
      "pageIndex": 1,
      "pageNumber": 1,
      "pageSize": 10
    },
    "size": 10,
    "total": 4210,
    "totalContent": 0,
    "totalElements": 4210,
    "totalPages": 421
  },
  "msg": "success"
}