{
  "code": 0,
  "data": {
    "content": [
      {
        "cate": 33,
        "cateStr": "摄影",
        "commentCount": 0,
        "commentCountStr": "0",
        "contentCount": 0,
        "contentCountStr": "0",
        "cover": "https://img.zcool.cn/community/01f76a61b03bff11013f01cd2e133b.jpg",
        "cover1x": "https://img.zcool.cn/community/01f76a61b03bff11013f01cd2e133b.jpg@260w_195h_1c_1e_1o_100sh.jpg",
        "cover2x": "https://img.zcool.cn/community/01f76a61b03bff11013f01cd2e133b.jpg@520w_390h_1c_1e_2o_100sh.jpg",
        "createTime": 1638939519000,
        "creator": 16461773,
        "creatorObj": {
          "avatar": "https://img.zcool.cn/community/03121135e4d31faa801216518efb916.jpg",
          "avatar1x": "https://img.zcool.cn/community/03121135e4d31faa801216518efb916.jpg@80w_80h_1c_1e_1o_100sh.jpg",
          "avatar2x": "https://img.zcool.cn/community/03121135e4d31faa801216518efb916.jpg@160w_160h_1c_1e_1o_100sh.jpg",
          "id": 16461773,
          "memberType": 0,
          "pageUrl": "https://www.zcool.com.cn/u/16461773",
          "status": 1,
          "username": "莓兮MAY"
        },
        "designTime": 1638921600000,
        "eventId": 0,
        "favoriteCount": 0,
        "favoriteCountStr": "0",
        "favoriteStatus": 0,
        "id": 14207324,
        "objectType": 3,
        "objectTypeStr": "作品",
        "pageUrl": "https://www.zcool.com.cn/work/ZNTY4MjkyOTY=.html",
        "personCount": 0,
        "publishTime": 1638940948000,
        "publishTimeDiffStr": "21小时前",
        "recommend": 2,
        "recommendCount": 11,
        "recommendCountStr": "11",
        "recommendTime": 1638952255000,
        "status": 1,
        "subCate": 34,
        "subCateStr": "人像摄影",
        "timeTitleStr": "最近更新时间：2021-12-08 16:30:55&#10;首次审核通过：2021-12-08 13:22:28&#10;内容创建时间：2021-12-08 12:58:39",
        "title": "《秋》古风摄影",
        "trackCode": "",
        "type": 1,
        "typeStr": "原创",
        "viewCount": 394,
        "viewCountStr": "394"
      },
      {
        "cate": 33,
        "cateStr": "摄影",
        "commentCount": 0,
        "commentCountStr": "0",
        "contentCount": 0,
        "contentCountStr": "0",
        "cover": "https://img.zcool.cn/community/0311b7c6191184511013ffe8a56d91b.jpg",
        "cover1x": "https://img.zcool.cn/community/0311b7c6191184511013ffe8a56d91b.jpg@260w_195h_1c_1e_1o_100sh.jpg",
        "cover2x": "https://img.zcool.cn/community/0311b7c6191184511013ffe8a56d91b.jpg@520w_390h_1c_1e_2o_100sh.jpg",
        "createTime": 1635612223000,
        "creator": 16461773,
        "creatorObj": {
          "avatar": "https://img.zcool.cn/community/03121135e4d31faa801216518efb916.jpg",
          "avatar1x": "https://img.zcool.cn/community/03121135e4d31faa801216518efb916.jpg@80w_80h_1c_1e_1o_100sh.jpg",
          "avatar2x": "https://img.zcool.cn/community/03121135e4d31faa801216518efb916.jpg@160w_160h_1c_1e_1o_100sh.jpg",
          "id": 16461773,
          "memberType": 0,
          "pageUrl": "https://www.zcool.com.cn/u/16461773",
          "status": 1,
          "username": "莓兮MAY"
        },
        "designTime": 1635612223000,
        "eventId": 0,
        "favoriteCount": 0,
        "favoriteCountStr": "0",
        "favoriteStatus": 0,
        "id": 14020925,
        "objectType": 3,
        "objectTypeStr": "作品",
        "pageUrl": "https://www.zcool.com.cn/work/ZNTYwODM3MDA=.html",
        "personCount": 0,
        "publishTime": 1636903854000,
        "publishTimeDiffStr": "24天前",
        "recommend": 2,
        "recommendCount": 6,
        "recommendCountStr": "6",
        "recommendTime": 1636944400000,
        "status": 1,
        "subCate": 34,
        "subCateStr": "人像摄影",
        "timeTitleStr": "最近更新时间：2021-11-15 10:46:40&#10;首次审核通过：2021-11-14 23:30:54&#10;内容创建时间：2021-10-31 00:43:43",
        "title": "夜色",
        "trackCode": "",
        "type": 1,
        "typeStr": "原创",
        "viewCount": 486,
        "viewCountStr": "486"
      },
      {
        "cate": 33,
        "cateStr": "摄影",
        "commentCount": 0,
        "commentCountStr": "0",
        "contentCount": 0,
        "contentCountStr": "0",
        "cover": "https://img.zcool.cn/community/01da4c617b6dd411013e8943e5bd76.jpg",
        "cover1x": "https://img.zcool.cn/community/01da4c617b6dd411013e8943e5bd76.jpg@260w_195h_1c_1e_1o_100sh.jpg",
        "cover2x": "https://img.zcool.cn/community/01da4c617b6dd411013e8943e5bd76.jpg@520w_390h_1c_1e_2o_100sh.jpg",
        "createTime": 1635478914000,
        "creator": 16461773,
        "creatorObj": {
          "avatar": "https://img.zcool.cn/community/03121135e4d31faa801216518efb916.jpg",
          "avatar1x": "https://img.zcool.cn/community/03121135e4d31faa801216518efb916.jpg@80w_80h_1c_1e_1o_100sh.jpg",
          "avatar2x": "https://img.zcool.cn/community/03121135e4d31faa801216518efb916.jpg@160w_160h_1c_1e_1o_100sh.jpg",
          "id": 16461773,
          "memberType": 0,
          "pageUrl": "https://www.zcool.com.cn/u/16461773",
          "status": 1,
          "username": "莓兮MAY"
        },
        "designTime": 1635479040000,
        "eventId": 0,
        "favoriteCount": 0,
        "favoriteCountStr": "0",
        "favoriteStatus": 0,
        "id": 14013596,
        "objectType": 3,
        "objectTypeStr": "作品",
        "pageUrl": "https://www.zcool.com.cn/work/ZNTYwNTQzODQ=.html",
        "personCount": 0,
        "publishTime": 1635482475000,
        "publishTimeDiffStr": "40天前",
        "recommend": 2,
        "recommendCount": 27,
        "recommendCountStr": "27",
        "recommendTime": 1635489324000,
        "status": 1,
        "subCate": 34,
        "subCateStr": "人像摄影",
        "timeTitleStr": "最近更新时间：2021-10-29 14:35:24&#10;首次审核通过：2021-10-29 12:41:15&#10;内容创建时间：2021-10-29 11:41:54",
        "title": "粉黛",
        "trackCode": "",
        "type": 1,
        "typeStr": "原创",
        "viewCount": 1104,
        "viewCountStr": "1104"
      },
      {
        "cate": 33,
        "cateStr": "摄影",
        "commentCount": 0,
        "commentCountStr": "0",
        "contentCount": 0,
        "contentCountStr": "0",
        "cover": "https://img.zcool.cn/community/01a79d6151e64d11013f22cf171b27.jpg",
        "cover1x": "https://img.zcool.cn/community/01a79d6151e64d11013f22cf171b27.jpg@260w_195h_1c_1e_1o_100sh.jpg",
        "cover2x": "https://img.zcool.cn/community/01a79d6151e64d11013f22cf171b27.jpg@520w_390h_1c_1e_2o_100sh.jpg",
        "createTime": 1632757274000,
        "creator": 16461773,
        "creatorObj": {
          "avatar": "https://img.zcool.cn/community/03121135e4d31faa801216518efb916.jpg",
          "avatar1x": "https://img.zcool.cn/community/03121135e4d31faa801216518efb916.jpg@80w_80h_1c_1e_1o_100sh.jpg",
          "avatar2x": "https://img.zcool.cn/community/03121135e4d31faa801216518efb916.jpg@160w_160h_1c_1e_1o_100sh.jpg",
          "id": 16461773,
          "memberType": 0,
          "pageUrl": "https://www.zcool.com.cn/u/16461773",
          "status": 1,
          "username": "莓兮MAY"
        },
        "designTime": 1632757348000,
        "eventId": 0,
        "favoriteCount": 0,
        "favoriteCountStr": "0",
        "favoriteStatus": 0,
        "id": 13873751,
        "objectType": 3,
        "objectTypeStr": "作品",
        "pageUrl": "https://www.zcool.com.cn/work/ZNTU0OTUwMDQ=.html",
        "personCount": 0,
        "publishTime": 1632760095000,
        "publishTimeDiffStr": "72天前",
        "recommend": 2,
        "recommendCount": 18,
        "recommendCountStr": "18",
        "recommendTime": 1632798356000,
        "status": 1,
        "subCate": 34,
        "subCateStr": "人像摄影",
        "timeTitleStr": "最近更新时间：2021-09-28 11:05:56&#10;首次审核通过：2021-09-28 00:28:15&#10;内容创建时间：2021-09-27 23:41:14",
        "title": "神明之光",
        "trackCode": "",
        "type": 1,
        "typeStr": "原创",
        "viewCount": 959,
        "viewCountStr": "959"
      },
      {
        "cate": 33,
        "cateStr": "摄影",
        "commentCount": 0,
        "commentCountStr": "0",
        "contentCount": 0,
        "contentCountStr": "0",
        "cover": "https://img.zcool.cn/community/031ba9c614954fe11013f22cf37843f.jpg",
        "cover1x": "https://img.zcool.cn/community/031ba9c614954fe11013f22cf37843f.jpg@260w_195h_1c_1e_1o_100sh.jpg",
        "cover2x": "https://img.zcool.cn/community/031ba9c614954fe11013f22cf37843f.jpg@520w_390h_1c_1e_2o_100sh.jpg",
        "createTime": 1632195607000,
        "creator": 16461773,
        "creatorObj": {
          "avatar": "https://img.zcool.cn/community/03121135e4d31faa801216518efb916.jpg",
          "avatar1x": "https://img.zcool.cn/community/03121135e4d31faa801216518efb916.jpg@80w_80h_1c_1e_1o_100sh.jpg",
          "avatar2x": "https://img.zcool.cn/community/03121135e4d31faa801216518efb916.jpg@160w_160h_1c_1e_1o_100sh.jpg",
          "id": 16461773,
          "memberType": 0,
          "pageUrl": "https://www.zcool.com.cn/u/16461773",
          "status": 1,
          "username": "莓兮MAY"
        },
        "designTime": 1632195607000,
        "eventId": 0,
        "favoriteCount": 0,
        "favoriteCountStr": "0",
        "favoriteStatus": 0,
        "id": 13840625,
        "objectType": 3,
        "objectTypeStr": "作品",
        "pageUrl": "https://www.zcool.com.cn/work/ZNTUzNjI1MDA=.html",
        "personCount": 0,
        "publishTime": 1632205173000,
        "publishTimeDiffStr": "78天前",
        "recommend": 1,
        "recommendCount": 6,
        "recommendCountStr": "6",
        "recommendTime": 1632280632000,
        "status": 1,
        "subCate": 34,
        "subCateStr": "人像摄影",
        "timeTitleStr": "最近更新时间：2021-09-22 11:17:12&#10;首次审核通过：2021-09-21 14:19:33&#10;内容创建时间：2021-09-21 11:40:07",
        "title": "月里嫦娥",
        "trackCode": "",
        "type": 1,
        "typeStr": "原创",
        "viewCount": 240,
        "viewCountStr": "240"
      },
      {
        "cate": 33,
        "cateStr": "摄影",
        "commentCount": 1,
        "commentCountStr": "1",
        "contentCount": 0,
        "contentCountStr": "0",
        "cover": "https://img.zcool.cn/community/01e3b36140ada711013f4720ce83b4.jpg",
        "cover1x": "https://img.zcool.cn/community/01e3b36140ada711013f4720ce83b4.jpg@260w_195h_1c_1e_1o_100sh.jpg",
        "cover2x": "https://img.zcool.cn/community/01e3b36140ada711013f4720ce83b4.jpg@520w_390h_1c_1e_2o_100sh.jpg",
        "createTime": 1631628604000,
        "creator": 16461773,
        "creatorObj": {
          "avatar": "https://img.zcool.cn/community/03121135e4d31faa801216518efb916.jpg",
          "avatar1x": "https://img.zcool.cn/community/03121135e4d31faa801216518efb916.jpg@80w_80h_1c_1e_1o_100sh.jpg",
          "avatar2x": "https://img.zcool.cn/community/03121135e4d31faa801216518efb916.jpg@160w_160h_1c_1e_1o_100sh.jpg",
          "id": 16461773,
          "memberType": 0,
          "pageUrl": "https://www.zcool.com.cn/u/16461773",
          "status": 1,
          "username": "莓兮MAY"
        },
        "designTime": 1631628730000,
        "eventId": 0,
        "favoriteCount": 0,
        "favoriteCountStr": "0",
        "favoriteStatus": 0,
        "id": 13811524,
        "objectType": 3,
        "objectTypeStr": "作品",
        "pageUrl": "https://www.zcool.com.cn/work/ZNTUyNDYwOTY=.html",
        "personCount": 0,
        "publishTime": 1631634757000,
        "publishTimeDiffStr": "85天前",
        "recommend": 1,
        "recommendCount": 3,
        "recommendCountStr": "3",
        "recommendTime": 1631677664000,
        "status": 1,
        "subCate": 34,
        "subCateStr": "人像摄影",
        "timeTitleStr": "最近更新时间：2021-09-15 11:47:44&#10;首次审核通过：2021-09-14 23:52:37&#10;内容创建时间：2021-09-14 22:10:04",
        "title": "大唐富贵花",
        "trackCode": "",
        "type": 1,
        "typeStr": "原创",
        "viewCount": 287,
        "viewCountStr": "287"
      },
      {
        "cate": 33,
        "cateStr": "摄影",
        "commentCount": 1,
        "commentCountStr": "1",
        "contentCount": 0,
        "contentCountStr": "0",
        "cover": "https://img.zcool.cn/community/03186bc6138712c11013eaf7092cc96.jpg",
        "cover1x": "https://img.zcool.cn/community/03186bc6138712c11013eaf7092cc96.jpg@260w_195h_1c_1e_1o_100sh.jpg",
        "cover2x": "https://img.zcool.cn/community/03186bc6138712c11013eaf7092cc96.jpg@520w_390h_1c_1e_2o_100sh.jpg",
        "createTime": 1631088749000,
        "creator": 16461773,
        "creatorObj": {
          "avatar": "https://img.zcool.cn/community/03121135e4d31faa801216518efb916.jpg",
          "avatar1x": "https://img.zcool.cn/community/03121135e4d31faa801216518efb916.jpg@80w_80h_1c_1e_1o_100sh.jpg",
          "avatar2x": "https://img.zcool.cn/community/03121135e4d31faa801216518efb916.jpg@160w_160h_1c_1e_1o_100sh.jpg",
          "id": 16461773,
          "memberType": 0,
          "pageUrl": "https://www.zcool.com.cn/u/16461773",
          "status": 1,
          "username": "莓兮MAY"
        },
        "designTime": 1631088749000,
        "eventId": 0,
        "favoriteCount": 0,
        "favoriteCountStr": "0",
        "favoriteStatus": 0,
        "id": 13779702,
        "objectType": 3,
        "objectTypeStr": "作品",
        "pageUrl": "https://www.zcool.com.cn/work/ZNTUxMTg4MDg=.html",
        "personCount": 0,
        "publishTime": 1631089613000,
        "publishTimeDiffStr": "91天前",
        "recommend": 2,
        "recommendCount": 11,
        "recommendCountStr": "11",
        "recommendTime": 1631154595000,
        "status": 1,
        "subCate": 34,
        "subCateStr": "人像摄影",
        "timeTitleStr": "最近更新时间：2021-09-09 10:29:55&#10;首次审核通过：2021-09-08 16:26:53&#10;内容创建时间：2021-09-08 16:12:29",
        "title": "在逃少女",
        "trackCode": "",
        "type": 1,
        "typeStr": "原创",
        "viewCount": 802,
        "viewCountStr": "802"
      },
      {
        "cate": 33,
        "cateStr": "摄影",
        "commentCount": 0,
        "commentCountStr": "0",
        "contentCount": 0,
        "contentCountStr": "0",
        "cover": "https://img.zcool.cn/community/0311d51613244bc11013eaf70808101.jpg",
        "cover1x": "https://img.zcool.cn/community/0311d51613244bc11013eaf70808101.jpg@260w_195h_1c_1e_1o_100sh.jpg",
        "cover2x": "https://img.zcool.cn/community/0311d51613244bc11013eaf70808101.jpg@520w_390h_1c_1e_2o_100sh.jpg",
        "createTime": 1630684207000,
        "creator": 16461773,
        "creatorObj": {
          "avatar": "https://img.zcool.cn/community/03121135e4d31faa801216518efb916.jpg",
          "avatar1x": "https://img.zcool.cn/community/03121135e4d31faa801216518efb916.jpg@80w_80h_1c_1e_1o_100sh.jpg",
          "avatar2x": "https://img.zcool.cn/community/03121135e4d31faa801216518efb916.jpg@160w_160h_1c_1e_1o_100sh.jpg",
          "id": 16461773,
          "memberType": 0,
          "pageUrl": "https://www.zcool.com.cn/u/16461773",
          "status": 1,
          "username": "莓兮MAY"
        },
        "designTime": 1630684207000,
        "eventId": 0,
        "favoriteCount": 0,
        "favoriteCountStr": "0",
        "favoriteStatus": 0,
        "id": 13756387,
        "objectType": 3,
        "objectTypeStr": "作品",
        "pageUrl": "https://www.zcool.com.cn/work/ZNTUwMjU1NDg=.html",
        "personCount": 0,
        "publishTime": 1630685969000,
        "publishTimeDiffStr": "96天前",
        "recommend": 1,
        "recommendCount": 2,
        "recommendCountStr": "2",
        "recommendTime": 1630837352000,
        "status": 1,
        "subCate": 34,
        "subCateStr": "人像摄影",
        "timeTitleStr": "最近更新时间：2021-09-05 18:22:32&#10;首次审核通过：2021-09-04 00:19:29&#10;内容创建时间：2021-09-03 23:50:07",
        "title": "红与黑",
        "trackCode": "",
        "type": 1,
        "typeStr": "原创",
        "viewCount": 80,
        "viewCountStr": "80"
      },
      {
        "cate": 33,
        "cateStr": "摄影",
        "commentCount": 0,
        "commentCountStr": "0",
        "contentCount": 0,
        "contentCountStr": "0",
        "cover": "https://img.zcool.cn/community/031df0c6128fc9711013eaf706fa0d4.jpg",
        "cover1x": "https://img.zcool.cn/community/031df0c6128fc9711013eaf706fa0d4.jpg@260w_195h_1c_1e_1o_100sh.jpg",
        "cover2x": "https://img.zcool.cn/community/031df0c6128fc9711013eaf706fa0d4.jpg@520w_390h_1c_1e_2o_100sh.jpg",
        "createTime": 1630075956000,
        "creator": 16461773,
        "creatorObj": {
          "avatar": "https://img.zcool.cn/community/03121135e4d31faa801216518efb916.jpg",
          "avatar1x": "https://img.zcool.cn/community/03121135e4d31faa801216518efb916.jpg@80w_80h_1c_1e_1o_100sh.jpg",
          "avatar2x": "https://img.zcool.cn/community/03121135e4d31faa801216518efb916.jpg@160w_160h_1c_1e_1o_100sh.jpg",
          "id": 16461773,
          "memberType": 0,
          "pageUrl": "https://www.zcool.com.cn/u/16461773",
          "status": 1,
          "username": "莓兮MAY"
        },
        "designTime": 1630075956000,
        "eventId": 0,
        "favoriteCount": 0,
        "favoriteCountStr": "0",
        "favoriteStatus": 0,
        "id": 13720243,
        "objectType": 3,
        "objectTypeStr": "作品",
        "pageUrl": "https://www.zcool.com.cn/work/ZNTQ4ODA5NzI=.html",
        "personCount": 0,
        "publishTime": 1630079341000,
        "publishTimeDiffStr": "103天前",
        "recommend": 1,
        "recommendCount": 4,
        "recommendCountStr": "4",
        "recommendTime": 1630243827000,
        "status": 1,
        "subCate": 34,
        "subCateStr": "人像摄影",
        "timeTitleStr": "最近更新时间：2021-08-29 21:30:27&#10;首次审核通过：2021-08-27 23:49:01&#10;内容创建时间：2021-08-27 22:52:36",
        "title": "荷塘悦色",
        "trackCode": "",
        "type": 1,
        "typeStr": "原创",
        "viewCount": 190,
        "viewCountStr": "190"
      },
      {
        "cate": 33,
        "cateStr": "摄影",
        "commentCount": 5,
        "commentCountStr": "5",
        "contentCount": 0,
        "contentCountStr": "0",
        "cover": "https://img.zcool.cn/community/031e62c6123973711013eaf70cd301a.jpg",
        "cover1x": "https://img.zcool.cn/community/031e62c6123973711013eaf70cd301a.jpg@260w_195h_1c_1e_1o_100sh.jpg",
        "cover2x": "https://img.zcool.cn/community/031e62c6123973711013eaf70cd301a.jpg@520w_390h_1c_1e_2o_100sh.jpg",
        "createTime": 1629722058000,
        "creator": 16461773,
        "creatorObj": {
          "avatar": "https://img.zcool.cn/community/03121135e4d31faa801216518efb916.jpg",
          "avatar1x": "https://img.zcool.cn/community/03121135e4d31faa801216518efb916.jpg@80w_80h_1c_1e_1o_100sh.jpg",
          "avatar2x": "https://img.zcool.cn/community/03121135e4d31faa801216518efb916.jpg@160w_160h_1c_1e_1o_100sh.jpg",
          "id": 16461773,
          "memberType": 0,
          "pageUrl": "https://www.zcool.com.cn/u/16461773",
          "status": 1,
          "username": "莓兮MAY"
        },
        "designTime": 1629722058000,
        "eventId": 0,
        "favoriteCount": 0,
        "favoriteCountStr": "0",
        "favoriteStatus": 0,
        "id": 13698129,
        "objectType": 3,
        "objectTypeStr": "作品",
        "pageUrl": "https://www.zcool.com.cn/work/ZNTQ3OTI1MTY=.html",
        "personCount": 0,
        "publishTime": 1629731888000,
        "publishTimeDiffStr": "107天前",
        "recommend": 2,
        "recommendCount": 10,
        "recommendCountStr": "10",
        "recommendTime": 1629774840000,
        "status": 1,
        "subCate": 34,
        "subCateStr": "人像摄影",
        "timeTitleStr": "最近更新时间：2021-08-24 11:14:00&#10;首次审核通过：2021-08-23 23:18:08&#10;内容创建时间：2021-08-23 20:34:18",
        "title": "采茶女",
        "trackCode": "",
        "type": 1,
        "typeStr": "原创",
        "viewCount": 1213,
        "viewCountStr": "1213"
      }
    ],
    "first": false,
    "last": false,
    "loadNumber": 1,
    "number": 1,
    "numberOfElements": 10,
    "pageable": {
      "limit": 10,
      "loadIndex": 1,
      "loadNumber": 1,
      "loadSize": 10,
      "offset": 0,
      "pageIndex": 1,
      "pageNumber": 1,
      "pageSize": 10
    },
    "size": 10,
    "total": 53,
    "totalContent": 0,
    "totalElements": 53,
    "totalPages": 6
  },
  "msg": "success"
}